CONSIDER (initial_sections = []):
at create test request body
{
  "id": "ssc-cgl-15",
  "title": "SSC CGL (Tier I) Mock Test 15",
  "exam_type": "SSC CGL",
  "duration_minutes": 60,
  "difficulty": "MEDIUM",
  "status": "FREE",
  "is_pyq": false,
  "initial_sections": [],
  "sections": [
    { "name": "General Awareness" },
    { "name": "Quantum Aptitude" },
    { "name": "Reasoning" },
    { "name": "English" }
  ]
}

NOTE: Edge Cases are not tested for any of the endpoints

// ============================================
// USER MANAGEMENT ENDPOINTS
// ============================================

GET /api/admin/users 
✅ Working fine
Sample response:
{
    "success": true,
    "data": {
        "users": [
            {
                "_id": "69c571d9e8a279741bd3a9e6",
                "name": "kundan kumar",
                "email": "kundan906420@gmail.com",
                "phone": "",
                "plan": "PREMIUM",
                "role": "USER",
                "isActive": true,
                "createdAt": "2026-03-26T17:50:17.779Z",
                "updatedAt": "2026-04-13T01:34:40.249Z",
                "__v": 3
            }
        ],
        "pagination": {
            "page": 1,
            "limit": 20,
            "total": 5,
            "totalPages": 1
        }
    },
    "message": "Users retrieved successfully"
}


GET /api/admin/users/:userId
✅ Working fine
Sample response:
{
    "success": true,
    "data": {
        "user": {
            "_id": "69c571d9e8a279741bd3a9e6",
            "name": "kundan kumar",
            "email": "kundan906420@gmail.com",
            "phone": "",
            "plan": "PREMIUM",
            "role": "USER",
            "isActive": true,
            "createdAt": "2026-03-26T17:50:17.779Z",
            "updatedAt": "2026-04-13T01:34:40.249Z",
            "__v": 3
        },
        "attempts": [
            {
                "_id": "69dc481ad04e17b68da77a60",
                "test_id": null,
                "user_id": "69c571d9e8a279741bd3a9e6",
                "status": "IN_PROGRESS",
                "__v": 0,
                "createdAt": "2026-04-13T01:34:20.431Z",
                "expires_at": "2026-04-13T02:34:20.364Z",
                "final_score": 0,
                "started_at": "2026-04-13T01:34:20.364Z",
                "updatedAt": "2026-04-13T01:34:24.885Z"
            },
            {
                "_id": "69c571ee80b6dd35c54f0238",
                "user_id": "69c571d9e8a279741bd3a9e6",
                "test_id": null,
                "status": "EXPIRED",
                "__v": 0,
                "createdAt": "2026-03-26T17:50:38.256Z",
                "expires_at": "2026-03-26T18:50:38.155Z",
                "final_score": 0,
                "started_at": "2026-03-26T17:50:38.155Z",
                "updatedAt": "2026-04-13T01:34:20.368Z"
            }
        ],
        "stats": {
            "totalAttempts": 0,
            "averageScore": 0,
            "bestScore": 0
        }
    },
    "message": "User detail retrieved successfully"
}


PATCH /api/admin/users/:userId/plan
✅ Working fine
Request Body:
{
    "plan": "premium"
}
Sample Response:
{
    "success": true,
    "data": {
        "user": {
            "_id": "69c571d9e8a279741bd3a9e6",
            "name": "kundan kumar",
            "email": "kundan906420@gmail.com",
            "phone": "",
            "plan": "PREMIUM",
            "role": "USER",
            "isActive": true,
            "createdAt": "2026-03-26T17:50:17.779Z",
            "updatedAt": "2026-04-13T20:20:13.775Z",
            "__v": 3
        }
    },
    "message": "User plan updated to PREMIUM"
}

// ============================================
// QUESTION MANAGEMENT ENDPOINTS
// ============================================

GET /api/admin/questions?search=What%20is%20the%20capital&&subject=Geography&page=1&limit=20
✅ Working fine
Sample Response:
{
    "success": true,
    "data": {
        "questions": [
            {
                "_id": "q-ga-284",
                "__v": 0,
                "correct_option": 0,
                "createdAt": "2026-04-13T01:25:42.789Z",
                "difficulty": "Easy",
                "explanation": "Chandigarh capital.",
                "marks": 2,
                "negative_marks": 0.5,
                "option_a": "Chandigarh",
                "option_b": "Gurgaon",
                "option_c": "Rohtak",
                "option_d": "Ambala",
                "subject": "Geography",
                "text": "What is the capital of Haryana??",
                "updatedAt": "2026-04-13T01:25:42.789Z"
            }
        ],
        "pagination": {
            "page": 1,
            "limit": 20,
            "total": 10,
            "totalPages": 1
        }
    },
    "message": "Questions retrieved successfully"
}

POST /api/admin/questions
✅ Working fine
Request Body:
{
    "id": "q-en-273", 
    "text": "what is the antonym of 'LEADER'", 
    "option_a": "Disciple", 
    "option_b": "Follower", 
    "option_c": "Member", 
    "option_d": "Person",
    "correct_option": 1, 
    "explanation": "The antonym of 'LEADER' is Follwer", 
    "marks": 2, 
    "negative_marks": 0.5, 
    "subject": "Vocablary",
    "difficulty": "Easy"
}
Sample Response:
{
    "success": true,
    "data": {
        "question": {
            "_id": "q-en-273",
            "text": "what is the antonym of 'LEADER'",
            "option_a": "Disciple",
            "option_b": "Follower",
            "option_c": "Member",
            "option_d": "Person",
            "correct_option": 1,
            "explanation": "The antonym of 'LEADER' is Follwer",
            "marks": 2,
            "negative_marks": 0.5,
            "subject": "Vocablary",
            "difficulty": "Easy",
            "createdAt": "2026-04-13T20:47:11.533Z",
            "updatedAt": "2026-04-13T20:47:11.533Z",
            "__v": 0
        }
    },
    "message": "Question created successfully"
}

PATCH /api/admin/questions/:questionId
✅ Working fine
Request Body:
{
    "text": "what is the synonym of 'LEADER'", 
}
Sample Response:
{
    "success": true,
    "data": {
        "question": {
            "_id": "q-en-273",
            "text": "what is the synonym of 'LEADER'",
            "option_a": "Disciple",
            "option_b": "Follower",
            "option_c": "Member",
            "option_d": "Person",
            "correct_option": 1,
            "explanation": "The antonym of 'LEADER' is Follwer",
            "marks": 2,
            "negative_marks": 0.5,
            "subject": "Vocablary",
            "difficulty": "Easy",
            "createdAt": "2026-04-13T20:47:11.533Z",
            "updatedAt": "2026-04-13T20:47:11.533Z",
            "__v": 0
        }
    },
    "message": "Question updated successfully"
}


// ============================================
// TEST MANAGEMENT ENDPOINTS
// ============================================

GET /api/admin/tests?exam_type=ssc%20cgl&&status=free&&page=5&&limit=2
✅ working fine
Sample Response:
{
    "success": true,
    "data": {
        "tests": [
            {
                "_id": "69dcc5bfd58c9a4e804c042b",
                "id": "ssc-cgl-07",
                "title": "SSC CGL (Tier I) Mock Test 7",
                "exam_type": "SSC CGL",
                "duration_minutes": 60,
                "difficulty": "MEDIUM",
                "status": "FREE",
                "attempted_count": 0,
                "is_pyq": false,
                "createdAt": "2026-04-13T10:30:23.891Z",
                "updatedAt": "2026-04-13T10:30:23.891Z",
                "__v": 0,
                "section_count": 0
            },
            {
                "_id": "69dcc5b5d58c9a4e804c0423",
                "id": "ssc-cgl-06",
                "title": "SSC CGL (Tier I) Mock Test 6",
                "exam_type": "SSC CGL",
                "duration_minutes": 60,
                "difficulty": "MEDIUM",
                "status": "FREE",
                "attempted_count": 0,
                "is_pyq": false,
                "createdAt": "2026-04-13T10:30:13.838Z",
                "updatedAt": "2026-04-13T10:30:13.838Z",
                "__v": 0,
                "section_count": 0
            }
        ],
        "pagination": {
            "page": 5,
            "limit": 2,
            "total": 14,
            "totalPages": 7
        }
    },
    "message": "Tests retrieved successfully"
}

POST /api/admin/tests
⚠️ Does not create tests with unique id
For eg. if we create a test with id "ssc-cgl-01" and then try to create another test with the same id, it will create it.

✅ Otherwise, working fine

Request Body:
{
  "id": "ssc-cgl-15",
  "title": "SSC CGL (Tier I) Mock Test 15",
  "exam_type": "SSC CGL",
  "duration_minutes": 60,
  "difficulty": "MEDIUM",
  "status": "FREE",
  "is_pyq": false,
  "initial_sections": [],
  "sections": [
    { "name": "General Awareness" },
    { "name": "Quantum Aptitude" },
    { "name": "Reasoning" },
    { "name": "English" }
  ]
}
Sample Response:
{
    "success": true,
    "data": {
        "test": {
            "id": "ssc-cgl-15",
            "title": "SSC CGL (Tier I) Mock Test 15",
            "exam_type": "SSC CGL",
            "duration_minutes": 60,
            "difficulty": "MEDIUM",
            "status": "FREE",
            "attempted_count": 0,
            "is_pyq": false,
            "_id": "69dd5eea4132c792a1c1060c",
            "createdAt": "2026-04-13T21:23:54.559Z",
            "updatedAt": "2026-04-13T21:23:54.559Z",
            "__v": 0
        },
        "sections": [
            {
                "testId": "69dd5eea4132c792a1c1060c",
                "name": "General Awareness",
                "section_order": 1,
                "_id": "69dd5eea4132c792a1c1060e",
                "__v": 0,
                "createdAt": "2026-04-13T21:23:54.706Z",
                "updatedAt": "2026-04-13T21:23:54.706Z"
            },
            {
                "testId": "69dd5eea4132c792a1c1060c",
                "name": "Quantum Aptitude",
                "section_order": 2,
                "_id": "69dd5eea4132c792a1c1060f",
                "__v": 0,
                "createdAt": "2026-04-13T21:23:54.706Z",
                "updatedAt": "2026-04-13T21:23:54.706Z"
            },
            {
                "testId": "69dd5eea4132c792a1c1060c",
                "name": "Reasoning",
                "section_order": 3,
                "_id": "69dd5eea4132c792a1c10610",
                "__v": 0,
                "createdAt": "2026-04-13T21:23:54.706Z",
                "updatedAt": "2026-04-13T21:23:54.706Z"
            },
            {
                "testId": "69dd5eea4132c792a1c1060c",
                "name": "English",
                "section_order": 4,
                "_id": "69dd5eea4132c792a1c10611",
                "__v": 0,
                "createdAt": "2026-04-13T21:23:54.707Z",
                "updatedAt": "2026-04-13T21:23:54.707Z"
            }
        ]
    },
    "message": "Test created successfully"
}

GET /api/admin/tests/:testId
✅ Working fine
Sample Response:
{
    "success": true,
    "data": {
        "test": {
            "_id": "69dcc62bd58c9a4e804c046b",
            "id": "ssc-cgl-15",
            "title": "SSC CGL (Tier I) Mock Test 15",
            "exam_type": "SSC CGL",
            "duration_minutes": 60,
            "difficulty": "MEDIUM",
            "status": "FREE",
            "attempted_count": 0,
            "is_pyq": false,
            "createdAt": "2026-04-13T10:32:11.232Z",
            "updatedAt": "2026-04-13T10:32:11.232Z",
            "__v": 0
        },
        "sections": []
    },
    "message": "Test detail retrieved successfully"
}

PATCH /api/admin/tests/:testId
✅ working fine
⚠️ NOTE: changing the value of attempted_count is not allowed by this API
Request Body:
{
  "status": "PREMIUM",
  "is_pyq": true,
  "attempted_count": 3
}
Sample Response:
{
    "success": true,
    "data": {
        "test": {
            "_id": "69dcc62bd58c9a4e804c046b",
            "id": "ssc-cgl-15",
            "title": "SSC CGL (Tier I) Mock Test 15",
            "exam_type": "SSC CGL",
            "duration_minutes": 60,
            "difficulty": "MEDIUM",
            "status": "PREMIUM",
            "attempted_count": 0,
            "is_pyq": true,
            "createdAt": "2026-04-13T10:32:11.232Z",
            "updatedAt": "2026-04-13T21:44:05.509Z",
            "__v": 0
        }
    },
    "message": "Test updated successfully"
}

POST /api/admin/tests/69dcc5b5d58c9a4e804c0423/sections/69dcc5b5d58c9a4e804c0428/questions
⚠️ Could not be tested now.
🪧 However, it works fine.
Request Body:
{
  "questions": [
    { "question_id": "q-en-029", "question_order": 1 },
    { "question_id": "q-en-030", "question_order": 2 },
    { "question_id": "q-en-031", "question_order": 3 },
    { "question_id": "q-en-032", "question_order": 4 },
    { "question_id": "q-en-033", "question_order": 5 },
    { "question_id": "q-en-034", "question_order": 6 },
    { "question_id": "q-en-035", "question_order": 7 },
    { "question_id": "q-en-036", "question_order": 8 },
    { "question_id": "q-en-037", "question_order": 9 },
    { "question_id": "q-en-038", "question_order": 10 },
    { "question_id": "q-en-039", "question_order": 11 },
    { "question_id": "q-en-040", "question_order": 12 },
    { "question_id": "q-en-041", "question_order": 13 },
    { "question_id": "q-en-042", "question_order": 14 },
    { "question_id": "q-en-043", "question_order": 15 },
    { "question_id": "q-en-044", "question_order": 16 },
    { "question_id": "q-en-045", "question_order": 17 },
    { "question_id": "q-en-046", "question_order": 18 },
    { "question_id": "q-en-047", "question_order": 19 },
    { "question_id": "q-en-048", "question_order": 20 },
    { "question_id": "q-en-049", "question_order": 21 },
    { "question_id": "q-en-050", "question_order": 22 },
    { "question_id": "q-en-051", "question_order": 23 },
    { "question_id": "q-en-052", "question_order": 24 },
    { "question_id": "q-en-053", "question_order": 25 }
  ]
}
Sample Response:


// ============================================
// ANALYTICS ENDPOINTS
// ============================================

GET /api/admin/analytics
Sample Response:
{
    "success": true,
    "data": {
        "users": {
            "total": 5,
            "premium": 3,
            "free": 2,
            "recentSignups": 0
        },
        "content": {
            "totalTests": 14,
            "totalQuestions": 1156
        },
        "attempts": {
            "total": 3,
            "submitted": 0,
            "inProgress": 3
        },
        "topTests": []
    },
    "message": "Analytics retrieved successfully"
}